2015-05-26 13:10:23,084 [29844/Thread-2/hamgr_trace:104] ERROR: hamgr_trace Exception[461][HA-mgr][failover][Non-SDN LAN 절체][http://10.0.0.71:8889/soap2/service/nssm/SWCtl][{"failover_ip": "211.224.204.159"}][{"status": "fail", "message": "Unable to Set Switch\ntoUP=[('sw2', '10.0.0.100', 3, 'nfv1', 'WAN'), ('sw2', '10.0.0.100', 22, 'nfv1', 'LAN')]\ntoDOWN=[]", "data": {"failover_ip": "211.224.204.159"}}][False][2015-05-26 13:09:58][2015-05-26 13:10:23][][syntax error at or near "sw2"
LINE 3: ..."fail", "message": "Unable to Set Switch\ntoUP=[('sw2', '10....
                                                             ^
]
2015-05-26 13:10:23,087 [29844/Thread-2/hamgr_trace:104] ERROR: hamgr_trace Exception[461][HA-mgr][failover][NFV 절체 요청 종료][][][{"response": {"result": "fail", "description": "Unable to Set Switch\ntoUP=[('sw2', '10.0.0.100', 3, 'nfv1', 'WAN'), ('sw2', '10.0.0.100', 22, 'nfv1', 'LAN')]\ntoDOWN=[]"}}][False][2015-05-26 13:09:58][2015-05-26 13:10:23][][syntax error at or near "sw2"
LINE 3: ...l", "description": "Unable to Set Switch\ntoUP=[('sw2', '10....
                                                             ^
]
2015-05-26 13:17:57,709 [30666/Thread-1/hamgr_trace:104] ERROR: hamgr_trace Exception[462][HA-mgr][failback][Non-SDN LAN 절체 복구][http://10.0.0.71:8889/soap2/service/nssm/SWCtl][{"failover_ip": "10.0.0.101"}][{"status": "fail", "message": "Unable to Set Switch\ntoUP=[]\ntoDOWN=[('sw2', '10.0.0.100', 3, 'nfv1', 'WAN'), ('sw2', '10.0.0.100', 22, 'nfv1', 'LAN')]", "data": {"failover_ip": "10.0.0.101"}}][False][2015-05-26 13:17:33][2015-05-26 13:17:57][][syntax error at or near "sw2"
LINE 3: ...ssage": "Unable to Set Switch\ntoUP=[]\ntoDOWN=[('sw2', '10....
                                                             ^
]
2015-05-26 13:17:57,713 [30666/Thread-1/hamgr_trace:104] ERROR: hamgr_trace Exception[462][HA-mgr][failback][NFV 절체 복구 종료][][][{"response": {"result": "fail", "description": "Unable to Set Switch\ntoUP=[]\ntoDOWN=[('sw2', '10.0.0.100', 3, 'nfv1', 'WAN'), ('sw2', '10.0.0.100', 22, 'nfv1', 'LAN')]"}}][False][2015-05-26 13:17:33][2015-05-26 13:17:57][][syntax error at or near "sw2"
LINE 3: ...ption": "Unable to Set Switch\ntoUP=[]\ntoDOWN=[('sw2', '10....
                                                             ^
]
2015-05-26 13:20:45,099 [31125/Thread-1/hamgr_trace:104] ERROR: hamgr_trace Exception[463][HA-mgr][failback][Non-SDN LAN 절체 복구][http://10.0.0.71:8889/soap2/service/nssm/SWCtl][{"failover_ip": "10.0.0.101"}][{"status": "fail", "message": "Unable to Set Switch\ntoUP=[]\ntoDOWN=[('sw2', '10.0.0.100', 3, 'nfv1', 'WAN'), ('sw2', '10.0.0.100', 22, 'nfv1', 'LAN')]", "data": {"failover_ip": "10.0.0.101"}}][False][2015-05-26 13:20:20][2015-05-26 13:20:45][][syntax error at or near "sw2"
LINE 3: ...ssage": "Unable to Set Switch\ntoUP=[]\ntoDOWN=[('sw2', '10....
                                                             ^
]
2015-05-26 13:20:45,103 [31125/Thread-1/hamgr_trace:104] ERROR: hamgr_trace Exception[463][HA-mgr][failback][NFV 절체 복구 종료][][][{"response": {"result": "fail", "description": "Unable to Set Switch\ntoUP=[]\ntoDOWN=[('sw2', '10.0.0.100', 3, 'nfv1', 'WAN'), ('sw2', '10.0.0.100', 22, 'nfv1', 'LAN')]"}}][False][2015-05-26 13:20:20][2015-05-26 13:20:45][][syntax error at or near "sw2"
LINE 3: ...ption": "Unable to Set Switch\ntoUP=[]\ntoDOWN=[('sw2', '10....
                                                             ^
]
2015-05-26 13:24:12,624 [31424/Thread-2/hamgr_trace:104] ERROR: hamgr_trace Exception[465][HA-mgr][failover][Non-SDN LAN 절체][http://10.0.0.71:8889/soap2/service/nssm/SWCtl][{"failover_ip": "211.224.204.159"}][{"status": "fail", "message": "Unable to Set Switch\ntoUP=[('sw2', '10.0.0.100', 3, 'nfv1', 'WAN'), ('sw2', '10.0.0.100', 22, 'nfv1', 'LAN')]\ntoDOWN=[]", "data": {"failover_ip": "211.224.204.159"}}][False][2015-05-26 13:23:48][2015-05-26 13:24:12][][syntax error at or near "sw2"
LINE 3: ..."fail", "message": "Unable to Set Switch\ntoUP=[('sw2', '10....
                                                             ^
]
